{
  "images" : [
    {
      "idiom" : "universal",
      "filename" : "iPad Spotlight iOS 7,8 @1x 40pt.png",
      "scale" : "1x"
    },
    {
      "idiom" : "universal",
      "filename" : "iPhone Spotlight iOS 7,8 @2x 40pt.png",
      "scale" : "2x"
    },
    {
      "idiom" : "universal",
      "filename" : "iPad App  iOS 7,8 @2x 76pt.png",
      "scale" : "3x"
    }
  ],
  "info" : {
    "version" : 1,
    "author" : "xcode"
  }
}